cp1-alu/alu-main/add.vcd
$date
	Wed Sep 18 19:49:38 2024
$end
$version
	Icarus Verilog
$end
$timescale
	100ps
$end
$scope module alu_tb $end
$var wire 32 ! Res [31:0] $end
$var wire 1 " OVF $end
$var wire 1 # NE $end
$var wire 1 $ LT $end
$var reg 32 % A [31:0] $end
$var reg 5 & ALU_OP [4:0] $end
$var reg 32 ' B [31:0] $end
$var reg 1 ( ExpLT $end
$var reg 1 ) ExpNE $end
$var reg 1 * ExpOVF $end
$var reg 32 + ExpRes [31:0] $end
$var reg 5 , Shift_Amt [4:0] $end
$var reg 128 - actFileName [127:0] $end
$var reg 128 . diffFileName [127:0] $end
$var reg 128 / expFileName [127:0] $end
$var reg 128 0 testName [127:0] $end
$var integer 32 1 actFile [31:0] $end
$var integer 32 2 diffFile [31:0] $end
$var integer 32 3 errors [31:0] $end
$var integer 32 4 expFile [31:0] $end
$var integer 32 5 expScan [31:0] $end
$var integer 32 6 tests [31:0] $end
$scope module Tester $end
$var wire 5 7 ctrl_ALUopcode [4:0] $end
$var wire 5 8 ctrl_shiftamt [4:0] $end
$var wire 32 9 data_operandA [31:0] $end
$var wire 32 : data_operandB [31:0] $end
$var wire 1 # isNotEqual $end
$var wire 1 ; ne1 $end
$var wire 1 < ne2 $end
$var wire 1 = ne3 $end
$var wire 1 > ne4 $end
$var wire 1 ? not_A31 $end
$var wire 1 @ not_B31 $end
$var wire 1 A not_res $end
$var wire 1 " overflow $end
$var wire 1 B ovf1 $end
$var wire 1 C ovf2 $end
$var wire 32 D zeroes [31:0] $end
$var wire 32 E y5 [31:0] $end
$var wire 32 F y4 [31:0] $end
$var wire 32 G y3 [31:0] $end
$var wire 32 H y2 [31:0] $end
$var wire 32 I y1 [31:0] $end
$var wire 32 J w1 [31:0] $end
$var wire 32 K not_data_operandB [31:0] $end
$var wire 1 L mw2 $end
$var wire 1 M mw1 $end
$var wire 1 $ isLessThan $end
$var wire 2 N isLTselect [1:0] $end
$var wire 32 O data_result [31:0] $end
$var wire 1 P cout_discard $end
$scope module adder $end
$var wire 1 Q Cin $end
$var wire 1 R c1 $end
$var wire 1 S c10 $end
$var wire 1 T c2 $end
$var wire 1 U c3 $end
$var wire 1 V c4 $end
$var wire 1 W c5 $end
$var wire 1 X c6 $end
$var wire 1 Y c7 $end
$var wire 1 Z c8 $end
$var wire 1 [ c9 $end
$var wire 5 \ carry [4:0] $end
$var wire 32 ] data_operandA [31:0] $end
$var wire 32 ^ data_operandB [31:0] $end
$var wire 32 _ data_result [31:0] $end
$var wire 4 ` big_P [3:0] $end
$var wire 4 a big_G [3:0] $end
$var wire 1 P Cout $end
$scope module highest8 $end
$var wire 1 b Cin $end
$var wire 1 c a1 $end
$var wire 1 d b1 $end
$var wire 1 e b2 $end
$var wire 1 f bg1 $end
$var wire 1 g bg2 $end
$var wire 1 h bg3 $end
$var wire 1 i bg4 $end
$var wire 1 j bg5 $end
$var wire 1 k bg6 $end
$var wire 1 l bg7 $end
$var wire 1 m big_G $end
$var wire 1 n big_P $end
$var wire 1 o c1 $end
$var wire 1 p c2 $end
$var wire 1 q c3 $end
$var wire 1 r d1 $end
$var wire 1 s d2 $end
$var wire 1 t d3 $end
$var wire 1 u d4 $end
$var wire 8 v data_operandA [7:0] $end
$var wire 8 w data_operandB [7:0] $end
$var wire 1 x e1 $end
$var wire 1 y e2 $end
$var wire 1 z e3 $end
$var wire 1 { e4 $end
$var wire 1 | e5 $end
$var wire 1 } f1 $end
$var wire 1 ~ f2 $end
$var wire 1 !" f3 $end
$var wire 1 "" f4 $end
$var wire 1 #" f5 $end
$var wire 1 $" f6 $end
$var wire 1 %" g1 $end
$var wire 1 &" g2 $end
$var wire 1 '" g3 $end
$var wire 1 (" g4 $end
$var wire 1 )" g5 $end
$var wire 1 *" g6 $end
$var wire 1 +" g7 $end
$var wire 1 ," h1 $end
$var wire 1 -" h2 $end
$var wire 1 ." h3 $end
$var wire 1 /" h4 $end
$var wire 1 0" h5 $end
$var wire 1 1" h6 $end
$var wire 1 2" h7 $end
$var wire 1 3" h8 $end
$var wire 8 4" p [7:0] $end
$var wire 8 5" g [7:0] $end
$var wire 8 6" data_result [7:0] $end
$var wire 8 7" c [7:0] $end
$var wire 1 8" Cout $end
$upscope $end
$scope module himed8 $end
$var wire 1 9" Cin $end
$var wire 1 :" a1 $end
$var wire 1 ;" b1 $end
$var wire 1 <" b2 $end
$var wire 1 =" bg1 $end
$var wire 1 >" bg2 $end
$var wire 1 ?" bg3 $end
$var wire 1 @" bg4 $end
$var wire 1 A" bg5 $end
$var wire 1 B" bg6 $end
$var wire 1 C" bg7 $end
$var wire 1 D" big_G $end
$var wire 1 E" big_P $end
$var wire 1 F" c1 $end
$var wire 1 G" c2 $end
$var wire 1 H" c3 $end
$var wire 1 I" d1 $end
$var wire 1 J" d2 $end
$var wire 1 K" d3 $end
$var wire 1 L" d4 $end
$var wire 8 M" data_operandA [7:0] $end
$var wire 8 N" data_operandB [7:0] $end
$var wire 1 O" e1 $end
$var wire 1 P" e2 $end
$var wire 1 Q" e3 $end
$var wire 1 R" e4 $end
$var wire 1 S" e5 $end
$var wire 1 T" f1 $end
$var wire 1 U" f2 $end
$var wire 1 V" f3 $end
$var wire 1 W" f4 $end
$var wire 1 X" f5 $end
$var wire 1 Y" f6 $end
$var wire 1 Z" g1 $end
$var wire 1 [" g2 $end
$var wire 1 \" g3 $end
$var wire 1 ]" g4 $end
$var wire 1 ^" g5 $end
$var wire 1 _" g6 $end
$var wire 1 `" g7 $end
$var wire 1 a" h1 $end
$var wire 1 b" h2 $end
$var wire 1 c" h3 $end
$var wire 1 d" h4 $end
$var wire 1 e" h5 $end
$var wire 1 f" h6 $end
$var wire 1 g" h7 $end
$var wire 1 h" h8 $end
$var wire 8 i" p [7:0] $end
$var wire 8 j" g [7:0] $end
$var wire 8 k" data_result [7:0] $end
$var wire 8 l" c [7:0] $end
$var wire 1 m" Cout $end
$upscope $end
$scope module lowest8 $end
$var wire 1 Q Cin $end
$var wire 1 n" a1 $end
$var wire 1 o" b1 $end
$var wire 1 p" b2 $end
$var wire 1 q" bg1 $end
$var wire 1 r" bg2 $end
$var wire 1 s" bg3 $end
$var wire 1 t" bg4 $end
$var wire 1 u" bg5 $end
$var wire 1 v" bg6 $end
$var wire 1 w" bg7 $end
$var wire 1 x" big_G $end
$var wire 1 y" big_P $end
$var wire 1 z" c1 $end
$var wire 1 {" c2 $end
$var wire 1 |" c3 $end
$var wire 1 }" d1 $end
$var wire 1 ~" d2 $end
$var wire 1 !# d3 $end
$var wire 1 "# d4 $end
$var wire 8 ## data_operandA [7:0] $end
$var wire 8 $# data_operandB [7:0] $end
$var wire 1 %# e1 $end
$var wire 1 &# e2 $end
$var wire 1 '# e3 $end
$var wire 1 (# e4 $end
$var wire 1 )# e5 $end
$var wire 1 *# f1 $end
$var wire 1 +# f2 $end
$var wire 1 ,# f3 $end
$var wire 1 -# f4 $end
$var wire 1 .# f5 $end
$var wire 1 /# f6 $end
$var wire 1 0# g1 $end
$var wire 1 1# g2 $end
$var wire 1 2# g3 $end
$var wire 1 3# g4 $end
$var wire 1 4# g5 $end
$var wire 1 5# g6 $end
$var wire 1 6# g7 $end
$var wire 1 7# h1 $end
$var wire 1 8# h2 $end
$var wire 1 9# h3 $end
$var wire 1 :# h4 $end
$var wire 1 ;# h5 $end
$var wire 1 <# h6 $end
$var wire 1 =# h7 $end
$var wire 1 ># h8 $end
$var wire 8 ?# p [7:0] $end
$var wire 8 @# g [7:0] $end
$var wire 8 A# data_result [7:0] $end
$var wire 8 B# c [7:0] $end
$var wire 1 C# Cout $end
$upscope $end
$scope module lowmed8 $end
$var wire 1 D# Cin $end
$var wire 1 E# a1 $end
$var wire 1 F# b1 $end
$var wire 1 G# b2 $end
$var wire 1 H# bg1 $end
$var wire 1 I# bg2 $end
$var wire 1 J# bg3 $end
$var wire 1 K# bg4 $end
$var wire 1 L# bg5 $end
$var wire 1 M# bg6 $end
$var wire 1 N# bg7 $end
$var wire 1 O# big_G $end
$var wire 1 P# big_P $end
$var wire 1 Q# c1 $end
$var wire 1 R# c2 $end
$var wire 1 S# c3 $end
$var wire 1 T# d1 $end
$var wire 1 U# d2 $end
$var wire 1 V# d3 $end
$var wire 1 W# d4 $end
$var wire 8 X# data_operandA [7:0] $end
$var wire 8 Y# data_operandB [7:0] $end
$var wire 1 Z# e1 $end
$var wire 1 [# e2 $end
$var wire 1 \# e3 $end
$var wire 1 ]# e4 $end
$var wire 1 ^# e5 $end
$var wire 1 _# f1 $end
$var wire 1 `# f2 $end
$var wire 1 a# f3 $end
$var wire 1 b# f4 $end
$var wire 1 c# f5 $end
$var wire 1 d# f6 $end
$var wire 1 e# g1 $end
$var wire 1 f# g2 $end
$var wire 1 g# g3 $end
$var wire 1 h# g4 $end
$var wire 1 i# g5 $end
$var wire 1 j# g6 $end
$var wire 1 k# g7 $end
$var wire 1 l# h1 $end
$var wire 1 m# h2 $end
$var wire 1 n# h3 $end
$var wire 1 o# h4 $end
$var wire 1 p# h5 $end
$var wire 1 q# h6 $end
$var wire 1 r# h7 $end
$var wire 1 s# h8 $end
$var wire 8 t# p [7:0] $end
$var wire 8 u# g [7:0] $end
$var wire 8 v# data_result [7:0] $end
$var wire 8 w# c [7:0] $end
$var wire 1 x# Cout $end
$upscope $end
$upscope $end
$scope module bitwise_and $end
$var wire 32 y# in1 [31:0] $end
$var wire 32 z# in2 [31:0] $end
$var wire 32 {# out [31:0] $end
$upscope $end
$scope module bitwise_or $end
$var wire 32 |# in1 [31:0] $end
$var wire 32 }# in2 [31:0] $end
$var wire 32 ~# out [31:0] $end
$upscope $end
$scope module final_mux $end
$var wire 32 !$ in0 [31:0] $end
$var wire 32 "$ in1 [31:0] $end
$var wire 32 #$ in2 [31:0] $end
$var wire 32 $$ in3 [31:0] $end
$var wire 32 %$ in6 [31:0] $end
$var wire 32 &$ in7 [31:0] $end
$var wire 3 '$ select [2:0] $end
$var wire 32 ($ w2 [31:0] $end
$var wire 32 )$ w1 [31:0] $end
$var wire 32 *$ out [31:0] $end
$var wire 32 +$ in5 [31:0] $end
$var wire 32 ,$ in4 [31:0] $end
$scope module first_bottom $end
$var wire 32 -$ in2 [31:0] $end
$var wire 32 .$ in3 [31:0] $end
$var wire 2 /$ select [1:0] $end
$var wire 32 0$ w2 [31:0] $end
$var wire 32 1$ w1 [31:0] $end
$var wire 32 2$ out [31:0] $end
$var wire 32 3$ in1 [31:0] $end
$var wire 32 4$ in0 [31:0] $end
$upscope $end
$scope module first_top $end
$var wire 32 5$ in0 [31:0] $end
$var wire 32 6$ in1 [31:0] $end
$var wire 32 7$ in2 [31:0] $end
$var wire 32 8$ in3 [31:0] $end
$var wire 2 9$ select [1:0] $end
$var wire 32 :$ w2 [31:0] $end
$var wire 32 ;$ w1 [31:0] $end
$var wire 32 <$ out [31:0] $end
$upscope $end
$upscope $end
$scope module notB $end
$var wire 32 =$ in [31:0] $end
$var wire 32 >$ out [31:0] $end
$upscope $end
$scope module sll $end
$var wire 32 ?$ in [31:0] $end
$var wire 5 @$ sh_amt [4:0] $end
$var wire 32 A$ zero [31:0] $end
$var wire 32 B$ td [31:0] $end
$var wire 32 C$ tc [31:0] $end
$var wire 32 D$ tb [31:0] $end
$var wire 32 E$ ta [31:0] $end
$var wire 32 F$ s8 [31:0] $end
$var wire 32 G$ s4 [31:0] $end
$var wire 32 H$ s2 [31:0] $end
$var wire 32 I$ s16 [31:0] $end
$var wire 32 J$ s1 [31:0] $end
$var wire 32 K$ out [31:0] $end
$upscope $end
$scope module sra $end
$var wire 32 L$ in [31:0] $end
$var wire 5 M$ sh_amt [4:0] $end
$var wire 32 N$ td [31:0] $end
$var wire 32 O$ tc [31:0] $end
$var wire 32 P$ tb [31:0] $end
$var wire 32 Q$ ta [31:0] $end
$var wire 32 R$ s8 [31:0] $end
$var wire 32 S$ s4 [31:0] $end
$var wire 32 T$ s2 [31:0] $end
$var wire 32 U$ s16 [31:0] $end
$var wire 32 V$ s1 [31:0] $end
$var wire 32 W$ out [31:0] $end
$upscope $end
$upscope $end
$upscope $end
$scope module alu_tb $end
$scope module Tester $end
$scope module adder $end
$scope module highest8 $end
$upscope $end
$scope module himed8 $end
$upscope $end
$scope module lowest8 $end
$upscope $end
$scope module lowmed8 $end
$upscope $end
$upscope $end
$scope module bitwise_and $end
$upscope $end
$scope module bitwise_or $end
$upscope $end
$scope module final_mux $end
$scope module first_bottom $end
$upscope $end
$scope module first_top $end
$upscope $end
$upscope $end
$scope module notB $end
$upscope $end
$scope module sll $end
$upscope $end
$scope module sra $end
$upscope $end
$upscope $end
$upscope $end
$enddefinitions $end
#0
$dumpvars
b0 W$
b0 V$
b0 U$
b0 T$
b0 S$
b0 R$
b0 Q$
b0 P$
b0 O$
b0 N$
b0 M$
b0 L$
b0 K$
b0 J$
b0 I$
b0 H$
b0 G$
b0 F$
b0 E$
b0 D$
b0 C$
b0 B$
b0 A$
b0 @$
b0 ?$
b11111111111111111111111111111111 >$
b0 =$
b0 <$
b0 ;$
b0 :$
b0 9$
b0 8$
b0 7$
b0 6$
b0 5$
b0 4$
b0 3$
b0 2$
b0 1$
b0 0$
b0 /$
b0 .$
b0 -$
b0 ,$
b0 +$
b0 *$
b0 )$
b0 ($
b0 '$
b0 &$
b0 %$
b0 $$
b0 #$
b0 "$
b0 !$
b0 ~#
b0 }#
b0 |#
b0 {#
b0 z#
b0 y#
0x#
b0 w#
b0 v#
b0 u#
b0 t#
0s#
0r#
0q#
0p#
0o#
0n#
0m#
0l#
0k#
0j#
0i#
0h#
0g#
0f#
0e#
0d#
0c#
0b#
0a#
0`#
0_#
0^#
0]#
0\#
0[#
0Z#
b0 Y#
b0 X#
0W#
0V#
0U#
0T#
0S#
0R#
0Q#
0P#
0O#
0N#
0M#
0L#
0K#
0J#
0I#
0H#
0G#
0F#
0E#
0D#
0C#
b0 B#
b0 A#
b0 @#
b0 ?#
0>#
0=#
0<#
0;#
0:#
09#
08#
07#
06#
05#
04#
03#
02#
01#
00#
0/#
0.#
0-#
0,#
0+#
0*#
0)#
0(#
0'#
0&#
0%#
b0 $#
b0 ##
0"#
0!#
0~"
0}"
0|"
0{"
0z"
0y"
0x"
0w"
0v"
0u"
0t"
0s"
0r"
0q"
0p"
0o"
0n"
0m"
b0 l"
b0 k"
b0 j"
b0 i"
0h"
0g"
0f"
0e"
0d"
0c"
0b"
0a"
0`"
0_"
0^"
0]"
0\"
0["
0Z"
0Y"
0X"
0W"
0V"
0U"
0T"
0S"
0R"
0Q"
0P"
0O"
b0 N"
b0 M"
0L"
0K"
0J"
0I"
0H"
0G"
0F"
0E"
0D"
0C"
0B"
0A"
0@"
0?"
0>"
0="
0<"
0;"
0:"
09"
08"
b0 7"
b0 6"
b0 5"
b0 4"
03"
02"
01"
00"
0/"
0."
0-"
0,"
0+"
0*"
0)"
0("
0'"
0&"
0%"
0$"
0#"
0""
0!"
0~
0}
0|
0{
0z
0y
0x
b0 w
b0 v
0u
0t
0s
0r
0q
0p
0o
0n
0m
0l
0k
0j
0i
0h
0g
0f
0e
0d
0c
0b
b0 a
b0 `
b0 _
b0 ^
b0 ]
b0 \
0[
0Z
0Y
0X
0W
0V
0U
0T
0S
0R
0Q
0P
b0 O
b0 N
0M
1L
b11111111111111111111111111111111 K
b0 J
b0 I
b0 H
b0 G
b0 F
b0 E
b0 D
0C
0B
1A
1@
1?
0>
0=
0<
0;
b0 :
b0 9
b0 8
b0 7
b0 6
b1000 5
b10000000000000000000000000000011 4
b0 3
b10000000000000000000000000000101 2
b10000000000000000000000000000100 1
b11000010110010001100100 0
b110000101100100011001000101111101100101011110000111000000101110011000110111001101110110 /
b11000010110010001100100010111110110010001101001011001100110011000101110011000110111001101110110 .
b110000101100100011001000101111101100001011000110111010001110101011000010110110000101110011000110111001101110110 -
b0 ,
b0 +
0*
0)
0(
b0 '
b0 &
b0 %
0$
0#
0"
b0 !
$end
#100
1#
b1 ($
b1 2$
b1 B#
b10 !
b10 O
b10 *$
1;
b1 1$
b10 )$
b10 <$
b10000000000000000 I$
b1 F
b1 ,$
b1 4$
b1 K$
b1 E
b1 +$
b1 3$
b1 W$
b1 @#
b10 ;$
b100000000 F$
b1 B$
b1 N$
b1 ?#
b10 I
b10 _
b10 !$
b10 "$
b10 5$
b10 6$
b10 A#
b1 :$
b10000 G$
b1 C$
b1 O$
b1 $#
b11111111111111111111111111111110 K
b11111111111111111111111111111110 >$
b1 H
b1 {#
b1 #$
b1 7$
b1 G
b1 ~#
b1 $$
b1 8$
b100 H$
b1 D$
b1 P$
b1 J
b1 ^
b1 ##
b10 J$
b1 E$
b1 Q$
b10 +
b1 '
b1 :
b1 z#
b1 }#
b1 =$
b1 %
b1 9
b1 ]
b1 y#
b1 |#
b1 ?$
b1 L$
b1 6
#200
b10 ($
b10 2$
b100 !
b100 O
b100 *$
b10 1$
b10 B#
0p"
b100 )$
b100 <$
b100000000000000000 I$
b10 F
b10 ,$
b10 4$
b10 K$
b10 E
b10 +$
b10 3$
b10 W$
b100 ;$
b1000000000 F$
b10 B$
b10 N$
b10 @#
b10 ?#
b100 I
b100 _
b100 !$
b100 "$
b100 5$
b100 6$
b100 A#
b10 :$
b100000 G$
b10 C$
b10 O$
b10 $#
b11111111111111111111111111111101 K
b11111111111111111111111111111101 >$
b10 H
b10 {#
b10 #$
b10 7$
b10 G
b10 ~#
b10 $$
b10 8$
b1000 H$
b10 D$
b10 P$
b10 J
b10 ^
b10 ##
b100 J$
b10 E$
b1 V$
b10 Q$
b100 +
b10 '
b10 :
b10 z#
b10 }#
b10 =$
b10 %
b10 9
b10 ]
b10 y#
b10 |#
b10 ?$
b10 L$
b10 6
#300
b100 ($
b100 2$
b1000 !
b1000 O
b1000 *$
b100 1$
b100 B#
0|"
b1000 )$
b1000 <$
b1000000000000000000 I$
b100 F
b100 ,$
b100 4$
b100 K$
b100 E
b100 +$
b100 3$
b100 W$
b1000 ;$
b10000000000 F$
b100 B$
b100 N$
b100 @#
b100 ?#
b1000 I
b1000 _
b1000 !$
b1000 "$
b1000 5$
b1000 6$
b1000 A#
b100 :$
b1000000 G$
b100 C$
b100 O$
b100 $#
b11111111111111111111111111111011 K
b11111111111111111111111111111011 >$
b100 H
b100 {#
b100 #$
b100 7$
b100 G
b100 ~#
b100 $$
b100 8$
b10000 H$
b100 D$
b1 T$
b100 P$
b100 J
b100 ^
b100 ##
b1000 J$
b100 E$
b10 V$
b100 Q$
b1000 +
b100 '
b100 :
b100 z#
b100 }#
b100 =$
b100 %
b100 9
b100 ]
b100 y#
b100 |#
b100 ?$
b100 L$
b11 6
#400
1#
1;
b1000 ($
b1000 2$
b10000 !
b10000 O
b10000 *$
b1000 1$
b1000 B#
0"#
b10000 )$
b10000 <$
b10000000000000000000 I$
b1000 F
b1000 ,$
b1000 4$
b1000 K$
b1000 E
b1000 +$
b1000 3$
b1000 W$
b10000 ;$
b100000000000 F$
b1000 B$
b1000 N$
b1000 @#
b1000 ?#
b10000 I
b10000 _
b10000 !$
b10000 "$
b10000 5$
b10000 6$
b10000 A#
b1000 :$
b10000000 G$
b1000 C$
b1000 O$
b1000 $#
b11111111111111111111111111110111 K
b11111111111111111111111111110111 >$
b1000 H
b1000 {#
b1000 #$
b1000 7$
b1000 G
b1000 ~#
b1000 $$
b1000 8$
b100000 H$
b1000 D$
b10 T$
b1000 P$
b1000 J
b1000 ^
b1000 ##
b10000 J$
b1000 E$
b100 V$
b1000 Q$
b10000 +
b1000 '
b1000 :
b1000 z#
b1000 }#
b1000 =$
b1000 %
b1000 9
b1000 ]
b1000 y#
b1000 |#
b1000 ?$
b1000 L$
b100 6
#500
b10000 ($
b10000 2$
b10000 B#
b100000 !
b100000 O
b100000 *$
b10000 1$
0)#
b100000 )$
b100000 <$
b100000000000000000000 I$
b10000 F
b10000 ,$
b10000 4$
b10000 K$
b10000 E
b10000 +$
b10000 3$
b10000 W$
b100000 ;$
b1000000000000 F$
b10000 B$
b10000 N$
b10000 @#
b10000 ?#
b100000 I
b100000 _
b100000 !$
b100000 "$
b100000 5$
b100000 6$
b100000 A#
b10000 :$
b100000000 G$
b10000 C$
b1 S$
b10000 O$
b10000 $#
b11111111111111111111111111101111 K
b11111111111111111111111111101111 >$
b10000 H
b10000 {#
b10000 #$
b10000 7$
b10000 G
b10000 ~#
b10000 $$
b10000 8$
b1000000 H$
b10000 D$
b100 T$
b10000 P$
b10000 J
b10000 ^
b10000 ##
b100000 J$
b10000 E$
b1000 V$
b10000 Q$
b100000 +
b10000 '
b10000 :
b10000 z#
b10000 }#
b10000 =$
b10000 %
b10000 9
b10000 ]
b10000 y#
b10000 |#
b10000 ?$
b10000 L$
b101 6
#600
b100000 ($
b100000 2$
b100000 B#
b1000000 !
b1000000 O
b1000000 *$
b100000 1$
0/#
b1000000 )$
b1000000 <$
b1000000000000000000000 I$
b100000 F
b100000 ,$
b100000 4$
b100000 K$
b100000 E
b100000 +$
b100000 3$
b100000 W$
b1000000 ;$
b10000000000000 F$
b100000 B$
b100000 N$
b100000 @#
b100000 ?#
b1000000 I
b1000000 _
b1000000 !$
b1000000 "$
b1000000 5$
b1000000 6$
b1000000 A#
b100000 :$
b1000000000 G$
b100000 C$
b10 S$
b100000 O$
b100000 $#
b11111111111111111111111111011111 K
b11111111111111111111111111011111 >$
b100000 H
b100000 {#
b100000 #$
b100000 7$
b100000 G
b100000 ~#
b100000 $$
b100000 8$
b10000000 H$
b100000 D$
b1000 T$
b100000 P$
b100000 J
b100000 ^
b100000 ##
b1000000 J$
b100000 E$
b10000 V$
b100000 Q$
b1000000 +
b100000 '
b100000 :
b100000 z#
b100000 }#
b100000 =$
b100000 %
b100000 9
b100000 ]
b100000 y#
b100000 |#
b100000 ?$
b100000 L$
b110 6
#700
b1000000 ($
b1000000 2$
b1000000 B#
b10000000 !
b10000000 O
b10000000 *$
b1000000 1$
06#
b10000000 )$
b10000000 <$
b10000000000000000000000 I$
b1000000 F
b1000000 ,$
b1000000 4$
b1000000 K$
b1000000 E
b1000000 +$
b1000000 3$
b1000000 W$
b10000000 ;$
b100000000000000 F$
b1000000 B$
b1000000 N$
b1000000 @#
b1000000 ?#
b10000000 I
b10000000 _
b10000000 !$
b10000000 "$
b10000000 5$
b10000000 6$
b10000000 A#
b1000000 :$
b10000000000 G$
b1000000 C$
b100 S$
b1000000 O$
b1000000 $#
b11111111111111111111111110111111 K
b11111111111111111111111110111111 >$
b1000000 H
b1000000 {#
b1000000 #$
b1000000 7$
b1000000 G
b1000000 ~#
b1000000 $$
b1000000 8$
b100000000 H$
b1000000 D$
b10000 T$
b1000000 P$
b1000000 J
b1000000 ^
b1000000 ##
b10000000 J$
b1000000 E$
b100000 V$
b1000000 Q$
b10000000 +
b1000000 '
b1000000 :
b1000000 z#
b1000000 }#
b1000000 =$
b1000000 %
b1000000 9
b1000000 ]
b1000000 y#
b1000000 |#
b1000000 ?$
b1000000 L$
b111 6
#800
1<
1#
0;
b1 v#
1D#
b10 \
1C#
b1 a
1x"
b10000000 ($
b10000000 2$
b10000000 B#
b100000000 !
b100000000 O
b100000000 *$
b10000000 1$
0>#
b100000000 )$
b100000000 <$
b100000000000000000000000 I$
b10000000 F
b10000000 ,$
b10000000 4$
b10000000 K$
b10000000 E
b10000000 +$
b10000000 3$
b10000000 W$
b100000000 ;$
b1000000000000000 F$
b10000000 B$
b10000000 N$
b10000000 @#
b10000000 ?#
b100000000 I
b100000000 _
b100000000 !$
b100000000 "$
b100000000 5$
b100000000 6$
b0 A#
b10000000 :$
b100000000000 G$
b10000000 C$
b1000 S$
b10000000 O$
b10000000 $#
b11111111111111111111111101111111 K
b11111111111111111111111101111111 >$
b10000000 H
b10000000 {#
b10000000 #$
b10000000 7$
b10000000 G
b10000000 ~#
b10000000 $$
b10000000 8$
b1000000000 H$
b10000000 D$
b100000 T$
b10000000 P$
b10000000 J
b10000000 ^
b10000000 ##
b100000000 J$
b10000000 E$
b1000000 V$
b10000000 Q$
b100000000 +
b10000000 '
b10000000 :
b10000000 z#
b10000000 }#
b10000000 =$
b10000000 %
b10000000 9
b10000000 ]
b10000000 y#
b10000000 |#
b10000000 ?$
b10000000 L$
b1000 6
#900
0D#
b0 \
0C#
b100000000 ($
b100000000 2$
b0 B#
b0 a
0x"
0;
b1 w#
b1000000000 !
b1000000000 O
b1000000000 *$
1<
b100000000 1$
0E#
b1000000000 )$
b1000000000 <$
b1000000000000000000000000 I$
b100000000 F
b100000000 ,$
b100000000 4$
b100000000 K$
b100000000 E
b100000000 +$
b100000000 3$
b100000000 W$
b0 ?#
b1 u#
b1000000000 ;$
b10000000000000000 F$
b100000000 B$
b1 R$
b100000000 N$
b0 @#
b0 A#
b1 t#
b1000000000 I
b1000000000 _
b1000000000 !$
b1000000000 "$
b1000000000 5$
b1000000000 6$
b10 v#
b100000000 :$
b1000000000000 G$
b100000000 C$
b10000 S$
b100000000 O$
b0 $#
b1 Y#
b11111111111111111111111011111111 K
b11111111111111111111111011111111 >$
b100000000 H
b100000000 {#
b100000000 #$
b100000000 7$
b100000000 G
b100000000 ~#
b100000000 $$
b100000000 8$
b10000000000 H$
b100000000 D$
b1000000 T$
b100000000 P$
b100000000 J
b100000000 ^
b0 ##
b1 X#
b1000000000 J$
b100000000 E$
b10000000 V$
b100000000 Q$
b1000000000 +
b100000000 '
b100000000 :
b100000000 z#
b100000000 }#
b100000000 =$
b100000000 %
b100000000 9
b100000000 ]
b100000000 y#
b100000000 |#
b100000000 ?$
b100000000 L$
b1001 6
#1000
b1000000000 ($
b1000000000 2$
b10000000000 !
b10000000000 O
b10000000000 *$
b1000000000 1$
b10 w#
0G#
b10000000000 )$
b10000000000 <$
b10000000000000000000000000 I$
b1000000000 F
b1000000000 ,$
b1000000000 4$
b1000000000 K$
b1000000000 E
b1000000000 +$
b1000000000 3$
b1000000000 W$
b10000000000 ;$
b100000000000000000 F$
b1000000000 B$
b10 R$
b1000000000 N$
b10 u#
b10 t#
b10000000000 I
b10000000000 _
b10000000000 !$
b10000000000 "$
b10000000000 5$
b10000000000 6$
b100 v#
b1000000000 :$
b10000000000000 G$
b1000000000 C$
b100000 S$
b1000000000 O$
b10 Y#
b11111111111111111111110111111111 K
b11111111111111111111110111111111 >$
b1000000000 H
b1000000000 {#
b1000000000 #$
b1000000000 7$
b1000000000 G
b1000000000 ~#
b1000000000 $$
b1000000000 8$
b100000000000 H$
b1000000000 D$
b10000000 T$
b1000000000 P$
b1000000000 J
b1000000000 ^
b10 X#
b10000000000 J$
b1000000000 E$
b100000000 V$
b1000000000 Q$
b10000000000 +
b1000000000 '
b1000000000 :
b1000000000 z#
b1000000000 }#
b1000000000 =$
b1000000000 %
b1000000000 9
b1000000000 ]
b1000000000 y#
b1000000000 |#
b1000000000 ?$
b1000000000 L$
b1010 6
#1100
b10000000000 ($
b10000000000 2$
b100000000000 !
b100000000000 O
b100000000000 *$
b10000000000 1$
b100 w#
0S#
b100000000000 )$
b100000000000 <$
b100000000000000000000000000 I$
b10000000000 F
b10000000000 ,$
b10000000000 4$
b10000000000 K$
b10000000000 E
b10000000000 +$
b10000000000 3$
b10000000000 W$
b100000000000 ;$
b1000000000000000000 F$
b10000000000 B$
b100 R$
b10000000000 N$
b100 u#
b100 t#
b100000000000 I
b100000000000 _
b100000000000 !$
b100000000000 "$
b100000000000 5$
b100000000000 6$
b1000 v#
b10000000000 :$
b100000000000000 G$
b10000000000 C$
b1000000 S$
b10000000000 O$
b100 Y#
b11111111111111111111101111111111 K
b11111111111111111111101111111111 >$
b10000000000 H
b10000000000 {#
b10000000000 #$
b10000000000 7$
b10000000000 G
b10000000000 ~#
b10000000000 $$
b10000000000 8$
b1000000000000 H$
b10000000000 D$
b100000000 T$
b10000000000 P$
b10000000000 J
b10000000000 ^
b100 X#
b100000000000 J$
b10000000000 E$
b1000000000 V$
b10000000000 Q$
b100000000000 +
b10000000000 '
b10000000000 :
b10000000000 z#
b10000000000 }#
b10000000000 =$
b10000000000 %
b10000000000 9
b10000000000 ]
b10000000000 y#
b10000000000 |#
b10000000000 ?$
b10000000000 L$
b1011 6
#1200
1#
1<
b100000000000 ($
b100000000000 2$
b1000000000000 !
b1000000000000 O
b1000000000000 *$
b100000000000 1$
b1000 w#
0W#
b1000000000000 )$
b1000000000000 <$
b1000000000000000000000000000 I$
b100000000000 F
b100000000000 ,$
b100000000000 4$
b100000000000 K$
b100000000000 E
b100000000000 +$
b100000000000 3$
b100000000000 W$
b1000000000000 ;$
b10000000000000000000 F$
b100000000000 B$
b1000 R$
b100000000000 N$
b1000 u#
b1000 t#
b1000000000000 I
b1000000000000 _
b1000000000000 !$
b1000000000000 "$
b1000000000000 5$
b1000000000000 6$
b10000 v#
b100000000000 :$
b1000000000000000 G$
b100000000000 C$
b10000000 S$
b100000000000 O$
b1000 Y#
b11111111111111111111011111111111 K
b11111111111111111111011111111111 >$
b100000000000 H
b100000000000 {#
b100000000000 #$
b100000000000 7$
b100000000000 G
b100000000000 ~#
b100000000000 $$
b100000000000 8$
b10000000000000 H$
b100000000000 D$
b1000000000 T$
b100000000000 P$
b100000000000 J
b100000000000 ^
b1000 X#
b1000000000000 J$
b100000000000 E$
b10000000000 V$
b100000000000 Q$
b1000000000000 +
b100000000000 '
b100000000000 :
b100000000000 z#
b100000000000 }#
b100000000000 =$
b100000000000 %
b100000000000 9
b100000000000 ]
b100000000000 y#
b100000000000 |#
b100000000000 ?$
b100000000000 L$
b1100 6
